-------------------------------------------------------------------------------
Test set: com.bootcamp.configserver.ConfigServerApplicationTests
-------------------------------------------------------------------------------
Tests run: 1, Failures: 0, Errors: 0, Skipped: 0, Time elapsed: 7.936 s - in com.bootcamp.configserver.ConfigServerApplicationTests
